%YAML 1.1
%TAG !u! tag:unity3d.com,2011:
--- !u!114 &11400000
MonoBehaviour:
  m_ObjectHideFlags: 0
  m_PrefabParentObject: {fileID: 0}
  m_PrefabInternal: {fileID: 0}
  m_GameObject: {fileID: 0}
  m_Enabled: 1
  m_EditorHideFlags: 0
  m_Script: {fileID: 733209648, guid: e0781e12b13132b45bf09c20fcd34d12, type: 3}
  m_Name: BTEditorWindowState
  m_EditorClassIdentifier: 
  Version: 21
  HolderNodes:
  - AssetPath: .currentai
    BehaviorTreeName: (No AI Selected)
    BehaviorTreeID: 0
    LastUpdate: 636533580895745923
    LastModified: 636533580479433855
    Errored: 0
  - AssetPath: .createxml
    BehaviorTreeName: Create New Behavior Tree
    BehaviorTreeID: 0
    LastUpdate: 0
    LastModified: 0
    Errored: 0
  - AssetPath: Assets/AI/BehaviorTrees/PlayerRoute.txt
    BehaviorTreeName: PlayerRoute
    BehaviorTreeID: 1
    LastUpdate: 636533580895745923
    LastModified: 636533580479433855
    Errored: 0
  TreeState:
    _branchRepo:
    - _fields: []
      _type: 0
      _stateIndex: 0
      _parent: 0
      _lastUpdate: 0
      _children: 
      _variables: 
      _focused: 0
    - _fields:
      - _field: name
        _currentValue: PlayerRoute
        _recordChange: 1
        _changed: 0
      - _field: open
        _currentValue: True
        _recordChange: 0
        _changed: 0
      - _field: repeatuntil
        _currentValue: 
        _recordChange: 1
        _changed: 0
      - _field: debugbreak
        _currentValue: False
        _recordChange: 1
        _changed: 0
      - _field: startingpriority
        _currentValue: 
        _recordChange: 1
        _changed: 0
      - _field: runningpriority
        _currentValue: 
        _recordChange: 1
        _changed: 0
      - _field: priority
        _currentValue: 
        _recordChange: 1
        _changed: 0
      - _field: weight
        _currentValue: 
        _recordChange: 1
        _changed: 0
      _type: 4
      _stateIndex: 1
      _parent: 0
      _lastUpdate: 636533580895745923
      _children: 02000000
      _variables: 
      _focused: 0
    - _fields:
      - _field: name
        _currentValue: root
        _recordChange: 1
        _changed: 0
      - _field: open
        _currentValue: True
        _recordChange: 0
        _changed: 0
      - _field: repeatuntil
        _currentValue: 
        _recordChange: 1
        _changed: 0
      - _field: debugbreak
        _currentValue: False
        _recordChange: 1
        _changed: 0
      - _field: startingpriority
        _currentValue: 
        _recordChange: 1
        _changed: 0
      - _field: runningpriority
        _currentValue: 
        _recordChange: 1
        _changed: 0
      - _field: priority
        _currentValue: 
        _recordChange: 1
        _changed: 0
      - _field: weight
        _currentValue: 
        _recordChange: 1
        _changed: 0
      - _field: usepriorities
        _currentValue: False
        _recordChange: 1
        _changed: 0
      _type: 20
      _stateIndex: 2
      _parent: 1
      _lastUpdate: 636533580895745923
      _children: 03000000
      _variables: 
      _focused: 0
    - _fields:
      - _field: name
        _currentValue: selector
        _recordChange: 1
        _changed: 0
      - _field: open
        _currentValue: True
        _recordChange: 0
        _changed: 0
      - _field: repeatuntil
        _currentValue: 
        _recordChange: 1
        _changed: 0
      - _field: debugbreak
        _currentValue: False
        _recordChange: 1
        _changed: 0
      - _field: startingpriority
        _currentValue: 
        _recordChange: 1
        _changed: 0
      - _field: runningpriority
        _currentValue: 
        _recordChange: 1
        _changed: 0
      - _field: priority
        _currentValue: 
        _recordChange: 1
        _changed: 0
      - _field: weight
        _currentValue: 
        _recordChange: 1
        _changed: 0
      - _field: usepriorities
        _currentValue: False
        _recordChange: 1
        _changed: 0
      _type: 19
      _stateIndex: 3
      _parent: 2
      _lastUpdate: 636533580895745923
      _children: 04000000
      _variables: 
      _focused: 0
    - _fields:
      - _field: name
        _currentValue: notPaused
        _recordChange: 1
        _changed: 0
      - _field: open
        _currentValue: True
        _recordChange: 0
        _changed: 0
      - _field: repeatuntil
        _currentValue: 
        _recordChange: 1
        _changed: 0
      - _field: debugbreak
        _currentValue: False
        _recordChange: 1
        _changed: 0
      - _field: startingpriority
        _currentValue: 
        _recordChange: 1
        _changed: 0
      - _field: runningpriority
        _currentValue: 
        _recordChange: 1
        _changed: 0
      - _field: priority
        _currentValue: 
        _recordChange: 1
        _changed: 0
      - _field: weight
        _currentValue: 
        _recordChange: 1
        _changed: 0
      - _field: constraint
        _currentValue: pausedGame==false
        _recordChange: 1
        _changed: 0
      _type: 5
      _stateIndex: 4
      _parent: 3
      _lastUpdate: 636533580895745923
      _children: 05000000
      _variables: 
      _focused: 0
    - _fields:
      - _field: name
        _currentValue: waypointpatrol
        _recordChange: 1
        _changed: 0
      - _field: open
        _currentValue: True
        _recordChange: 0
        _changed: 0
      - _field: repeatuntil
        _currentValue: 
        _recordChange: 1
        _changed: 0
      - _field: debugbreak
        _currentValue: False
        _recordChange: 1
        _changed: 0
      - _field: startingpriority
        _currentValue: 
        _recordChange: 1
        _changed: 0
      - _field: runningpriority
        _currentValue: 
        _recordChange: 1
        _changed: 0
      - _field: priority
        _currentValue: 
        _recordChange: 1
        _changed: 0
      - _field: weight
        _currentValue: 
        _recordChange: 1
        _changed: 0
      - _field: waypointactiontype
        _currentValue: patrol
        _recordChange: 1
        _changed: 0
      - _field: traversetype
        _currentValue: oneway
        _recordChange: 1
        _changed: 0
      - _field: traverseorder
        _currentValue: forward
        _recordChange: 1
        _changed: 0
      - _field: waypointsetvariable
        _currentValue: playerRoute
        _recordChange: 1
        _changed: 0
      - _field: pathtargetvariable
        _currentValue: 
        _recordChange: 1
        _changed: 0
      - _field: movetargetvariable
        _currentValue: nextStep
        _recordChange: 1
        _changed: 0
      _type: 23
      _stateIndex: 5
      _parent: 4
      _lastUpdate: 636533580895745923
      _children: 06000000
      _variables: 
      _focused: 0
    - _fields:
      - _field: name
        _currentValue: move
        _recordChange: 1
        _changed: 0
      - _field: repeatuntil
        _currentValue: 
        _recordChange: 1
        _changed: 0
      - _field: debugbreak
        _currentValue: False
        _recordChange: 1
        _changed: 0
      - _field: startingpriority
        _currentValue: 
        _recordChange: 1
        _changed: 0
      - _field: runningpriority
        _currentValue: 
        _recordChange: 1
        _changed: 0
      - _field: priority
        _currentValue: 
        _recordChange: 1
        _changed: 0
      - _field: weight
        _currentValue: 
        _recordChange: 1
        _changed: 0
      - _field: movetarget
        _currentValue: nextStep
        _recordChange: 1
        _changed: 0
      - _field: movespeed
        _currentValue: moveSpeed
        _recordChange: 1
        _changed: 0
      - _field: facetarget
        _currentValue: 
        _recordChange: 1
        _changed: 0
      - _field: turnspeed
        _currentValue: 
        _recordChange: 1
        _changed: 0
      - _field: closeenoughdistance
        _currentValue: 
        _recordChange: 1
        _changed: 0
      - _field: closeenoughangle
        _currentValue: 
        _recordChange: 1
        _changed: 0
      _type: 15
      _stateIndex: 6
      _parent: 5
      _lastUpdate: 0
      _children: 
      _variables: 
      _focused: 1
    _freeList: 
